encoding/hangzhou.nonce.out

./tezos-codec encode 011-PtHangz2.nonce from '"0000000000000000000000000000000000000000000000000000000000000000"'
0000000000000000000000000000000000000000000000000000000000000000

./tezos-codec decode 011-PtHangz2.nonce from 0000000000000000000000000000000000000000000000000000000000000000
"0000000000000000000000000000000000000000000000000000000000000000"
